<svg xmlns="http://www.w3.org/2000/svg" height="0" color-interpolation-filters="sRGB">
<filter id="rev">
<feComponentTransfer>
<feFuncR type="discrete" tableValues="0 .502 .251 .753 .125 .627 .376 .878 .063 .565 .314 .816 .188 .69 .439 .941 .031 .533 .282 .784 .157 .659 .408 .91 .094 .596 .345 .847 .22 .722 .471 .973 .016 .518 .267 .769 .141 .643 .392 .894 .078 .58 .329 .831 .204 .706 .455 .957 .047 .549 .298 .8 .173 .675 .424 .925 .11 .612 .361 .863 .235 .737 .486 .988 .008 .51 .259 .761 .133 .635 .384 .886 .071 .573 .322 .824 .196 .698 .447 .949 .039 .541 .29 .792 .165 .667 .416 .918 .102 .604 .353 .855 .227 .729 .478 .98 .024 .525 .275 .776 .149 .651 .4 .902 .086 .588 .337 .839 .212 .714 .463 .965 .055 .557 .306 .808 .18 .682 .431 .933 .118 .62 .369 .871 .243 .745 .494 .996 .004 .506 .255 .757 .129 .631 .38 .882 .067 .569 .318 .82 .192 .694 .443 .945 .035 .537 .286 .788 .161 .663 .412 .914 .098 .6 .349 .851 .224 .725 .475 .976 .02 .522 .271 .773 .145 .647 .396 .898 .082 .584 .333 .835 .208 .71 .459 .961 .051 .553 .302 .804 .176 .678 .427 .929 .114 .616 .365 .867 .239 .741 .49 .992 .012 .514 .263 .765 .137 .639 .388 .89 .075 .576 .325 .827 .2 .702 .451 .953 .043 .545 .294 .796 .169 .671 .42 .922 .106 .608 .357 .859 .231 .733 .482 .984 .027 .529 .278 .78 .153 .655 .404 .906 .09 .592 .341 .843 .216 .718 .467 .969 .059 .561 .31 .812 .184 .686 .435 .937 .122 .624 .373 .875 .247 .749 .498 1"/>
<feFuncG type="discrete" tableValues="0 .502 .251 .753 .125 .627 .376 .878 .063 .565 .314 .816 .188 .69 .439 .941 .031 .533 .282 .784 .157 .659 .408 .91 .094 .596 .345 .847 .22 .722 .471 .973 .016 .518 .267 .769 .141 .643 .392 .894 .078 .58 .329 .831 .204 .706 .455 .957 .047 .549 .298 .8 .173 .675 .424 .925 .11 .612 .361 .863 .235 .737 .486 .988 .008 .51 .259 .761 .133 .635 .384 .886 .071 .573 .322 .824 .196 .698 .447 .949 .039 .541 .29 .792 .165 .667 .416 .918 .102 .604 .353 .855 .227 .729 .478 .98 .024 .525 .275 .776 .149 .651 .4 .902 .086 .588 .337 .839 .212 .714 .463 .965 .055 .557 .306 .808 .18 .682 .431 .933 .118 .62 .369 .871 .243 .745 .494 .996 .004 .506 .255 .757 .129 .631 .38 .882 .067 .569 .318 .82 .192 .694 .443 .945 .035 .537 .286 .788 .161 .663 .412 .914 .098 .6 .349 .851 .224 .725 .475 .976 .02 .522 .271 .773 .145 .647 .396 .898 .082 .584 .333 .835 .208 .71 .459 .961 .051 .553 .302 .804 .176 .678 .427 .929 .114 .616 .365 .867 .239 .741 .49 .992 .012 .514 .263 .765 .137 .639 .388 .89 .075 .576 .325 .827 .2 .702 .451 .953 .043 .545 .294 .796 .169 .671 .42 .922 .106 .608 .357 .859 .231 .733 .482 .984 .027 .529 .278 .78 .153 .655 .404 .906 .09 .592 .341 .843 .216 .718 .467 .969 .059 .561 .31 .812 .184 .686 .435 .937 .122 .624 .373 .875 .247 .749 .498 1"/>
<feFuncB type="discrete" tableValues="0 .502 .251 .753 .125 .627 .376 .878 .063 .565 .314 .816 .188 .69 .439 .941 .031 .533 .282 .784 .157 .659 .408 .91 .094 .596 .345 .847 .22 .722 .471 .973 .016 .518 .267 .769 .141 .643 .392 .894 .078 .58 .329 .831 .204 .706 .455 .957 .047 .549 .298 .8 .173 .675 .424 .925 .11 .612 .361 .863 .235 .737 .486 .988 .008 .51 .259 .761 .133 .635 .384 .886 .071 .573 .322 .824 .196 .698 .447 .949 .039 .541 .29 .792 .165 .667 .416 .918 .102 .604 .353 .855 .227 .729 .478 .98 .024 .525 .275 .776 .149 .651 .4 .902 .086 .588 .337 .839 .212 .714 .463 .965 .055 .557 .306 .808 .18 .682 .431 .933 .118 .62 .369 .871 .243 .745 .494 .996 .004 .506 .255 .757 .129 .631 .38 .882 .067 .569 .318 .82 .192 .694 .443 .945 .035 .537 .286 .788 .161 .663 .412 .914 .098 .6 .349 .851 .224 .725 .475 .976 .02 .522 .271 .773 .145 .647 .396 .898 .082 .584 .333 .835 .208 .71 .459 .961 .051 .553 .302 .804 .176 .678 .427 .929 .114 .616 .365 .867 .239 .741 .49 .992 .012 .514 .263 .765 .137 .639 .388 .89 .075 .576 .325 .827 .2 .702 .451 .953 .043 .545 .294 .796 .169 .671 .42 .922 .106 .608 .357 .859 .231 .733 .482 .984 .027 .529 .278 .78 .153 .655 .404 .906 .09 .592 .341 .843 .216 .718 .467 .969 .059 .561 .31 .812 .184 .686 .435 .937 .122 .624 .373 .875 .247 .749 .498 1"/>
</feComponentTransfer>
</filter>
</svg>
